%YAML 1.1
%TAG !u! tag:unity3d.com,2011:
--- !u!21 &2100000
Material:
  serializedVersion: 6
  m_ObjectHideFlags: 0
  m_CorrespondingSourceObject: {fileID: 0}
  m_PrefabInstance: {fileID: 0}
  m_PrefabAsset: {fileID: 0}
  m_Name: GridMaterial
  m_Shader: {fileID: -6465566751694194690, guid: 6d8f09798bd4c9b44935352f194624d2,
    type: 3}
  m_ShaderKeywords: 
  m_LightmapFlags: 2
  m_EnableInstancingVariants: 0
  m_DoubleSidedGI: 0
  m_CustomRenderQueue: -1
  stringTagMap: {}
  disabledShaderPasses: []
  m_SavedProperties:
    serializedVersion: 3
    m_TexEnvs: []
    m_Floats:
    - Vector1_381282D4: 0.95
    m_Colors:
    - Color_8EF9C9A4: {r: 30.209373, g: 30.209373, b: 30.209373, a: 0}
    - Vector2_D194FCFE: {r: 0.1, g: 0.1, b: 0.1, a: 0}
